<?xml version="1.0" encoding="UTF-8" standalone="no"?>
<!-- Created with Inkscape (http://www.inkscape.org/) -->

<svg
   width="17.991665mm"
   height="17.991665mm"
   viewBox="0 0 17.991665 17.991665"
   version="1.1"
   id="svg5"
   inkscape:version="1.2.2 (b0a8486541, 2022-12-01)"
   sodipodi:docname="cercle_tres_clair.svg"
   xmlns:inkscape="http://www.inkscape.org/namespaces/inkscape"
   xmlns:sodipodi="http://sodipodi.sourceforge.net/DTD/sodipodi-0.dtd"
   xmlns="http://www.w3.org/2000/svg"
   xmlns:svg="http://www.w3.org/2000/svg">
  <sodipodi:namedview
     id="namedview7"
     pagecolor="#ffffff"
     bordercolor="#666666"
     borderopacity="1.0"
     inkscape:showpageshadow="2"
     inkscape:pageopacity="0.0"
     inkscape:pagecheckerboard="0"
     inkscape:deskcolor="#d1d1d1"
     inkscape:document-units="mm"
     showgrid="false"
     inkscape:zoom="0.72337262"
     inkscape:cx="-33.869128"
     inkscape:cy="-47.002056"
     inkscape:window-width="1584"
     inkscape:window-height="505"
     inkscape:window-x="269"
     inkscape:window-y="37"
     inkscape:window-maximized="0"
     inkscape:current-layer="layer1" />
  <defs
     id="defs2" />
  <g
     inkscape:label="Calque 1"
     inkscape:groupmode="layer"
     id="layer1"
     transform="translate(-50.723238,-41.195028)">
    <circle
       style="opacity:0;fill:#ff0000;fill-rule:evenodd;stroke:#000000;stroke-width:2;stroke-dasharray:none;stroke-opacity:1"
       id="path234"
       cx="35.884529"
       cy="59.116226"
       r="8" />
    <circle
       style="fill:#ffc8c8;fill-rule:evenodd;stroke:#000000;stroke-width:1.05833;stroke-dasharray:none;stroke-opacity:1;fill-opacity:1"
       id="path792"
       cx="59.71907"
       cy="50.190861"
       r="8.4666662" />
  </g>
</svg>
